EESchema Schematic File Version 5
EELAYER 30 0
EELAYER END
$Descr A3 16535 11693
encoding utf-8
Sheet 1 1
Title ""
Date ""
Rev ""
Comp ""
Comment1 ""
Comment2 ""
Comment3 ""
Comment4 ""
Comment5 ""
Comment6 ""
Comment7 ""
Comment8 ""
Comment9 ""
$EndDescr
$Comp
L RF:NRF24L01_Breakout U5
U 1 1 5DE84F4D
P 13900 6500
F 0 "U5" H 13600 7000 50  0000 L CNN
F 1 "NRF24L01_Breakout" H 13950 7000 50  0000 L CNN
F 2 "RF_Module:nRF24L01_Breakout" H 14050 7100 50  0001 L CIN
F 3 "http://www.nordicsemi.com/eng/content/download/2730/34105/file/nRF24L01_Product_Specification_v2_0.pdf" H 13900 6400 50  0001 C CNN
	1    13900 6500
	1    0    0    -1  
$EndComp
$Comp
L CUSTOM_minor:Rotary_encoder U7
U 1 1 5DEE3DA2
P 12100 1900
F 0 "U7" H 12100 2100 50  0000 C CNN
F 1 "RE_LEFT" V 11900 1900 50  0000 C CNN
F 2 "Connector_PinHeader_2.54mm:PinHeader_1x03_P2.54mm_Vertical" H 12250 2250 50  0001 C CNN
F 3 "" H 12250 2250 50  0001 C CNN
	1    12100 1900
	1    0    0    -1  
$EndComp
$Comp
L CUSTOM_minor:Rotary_encoder U6
U 1 1 5DEE4D50
P 13950 1900
F 0 "U6" H 13950 2100 50  0000 C CNN
F 1 "RE_RIGHT" V 13750 1900 50  0000 C CNN
F 2 "Connector_PinHeader_2.54mm:PinHeader_1x03_P2.54mm_Vertical" H 14100 2250 50  0001 C CNN
F 3 "" H 14100 2250 50  0001 C CNN
	1    13950 1900
	1    0    0    -1  
$EndComp
$Comp
L Device:Battery BT1
U 1 1 5DEF1D0C
P 1750 3600
F 0 "BT1" H 1858 3646 50  0000 L CNN
F 1 "Battery" H 1858 3555 50  0000 L CNN
F 2 "Connector_PinHeader_2.54mm:PinHeader_1x02_P2.54mm_Vertical" V 1750 3660 50  0001 C CNN
F 3 "~" V 1750 3660 50  0001 C CNN
	1    1750 3600
	1    0    0    -1  
$EndComp
$Comp
L Connector_Generic:Conn_01x22 J5
U 1 1 5DEF3FA4
P 7950 3050
F 0 "J5" H 8000 4300 50  0000 C CNN
F 1 "Right_connector" H 7750 4200 50  0000 C CNN
F 2 "Connector_PinSocket_2.54mm:PinSocket_1x22_P2.54mm_Vertical" H 7950 3050 50  0001 C CNN
F 3 "~" H 7950 3050 50  0001 C CNN
	1    7950 3050
	-1   0    0    -1  
$EndComp
$Comp
L Connector_Generic:Conn_01x04 J3
U 1 1 5DEF74E5
P 7650 4150
F 0 "J3" V 7550 4300 50  0000 L CNN
F 1 "Bottom_connector" V 7450 4300 50  0000 L CNN
F 2 "Connector_PinSocket_2.54mm:PinSocket_1x04_P2.54mm_Vertical" H 7650 4150 50  0001 C CNN
F 3 "~" H 7650 4150 50  0001 C CNN
	1    7650 4150
	0    1    -1   0   
$EndComp
$Comp
L CUSTOM_minor:ICM-20948_breakout U3
U 1 1 5DF03F82
P 3200 9850
F 0 "U3" H 3000 10200 50  0000 C CNN
F 1 "ICM-20948_breakout" H 3700 10200 50  0000 C CNN
F 2 "Connector_PinHeader_2.54mm:PinHeader_1x06_P2.54mm_Vertical" H 3150 10750 50  0001 C CNN
F 3 "" H 3150 10750 50  0001 C CNN
	1    3200 9850
	1    0    0    -1  
$EndComp
Wire Wire Line
	7750 4350 7750 4700
Text Label 7550 4700 1    50   ~ 0
SWDIO
Text Label 7650 4700 1    50   ~ 0
SWSCK
Wire Wire Line
	7050 4150 6750 4150
Wire Wire Line
	7050 3850 6750 3850
Wire Wire Line
	7050 3750 6750 3750
Wire Wire Line
	7050 3650 6750 3650
Wire Wire Line
	7050 3550 6750 3550
Wire Wire Line
	7050 2150 6750 2150
Wire Wire Line
	7050 2050 6750 2050
Wire Wire Line
	8150 2350 8450 2350
Wire Wire Line
	8150 2550 8450 2550
Wire Wire Line
	8150 2650 8450 2650
Wire Wire Line
	8150 2750 8450 2750
Wire Wire Line
	8150 3050 8450 3050
Wire Wire Line
	8150 3150 8450 3150
Wire Wire Line
	8150 3250 8450 3250
Wire Wire Line
	6750 2350 7050 2350
$Comp
L power:+5V #PWR0101
U 1 1 5DF44C37
P 1750 3350
F 0 "#PWR0101" H 1750 3200 50  0001 C CNN
F 1 "+5V" H 1765 3523 50  0000 C CNN
F 2 "" H 1750 3350 50  0001 C CNN
F 3 "" H 1750 3350 50  0001 C CNN
	1    1750 3350
	1    0    0    -1  
$EndComp
Wire Wire Line
	1750 3350 1750 3400
$Comp
L power:GND #PWR0102
U 1 1 5DF4670D
P 1750 3850
F 0 "#PWR0102" H 1750 3600 50  0001 C CNN
F 1 "GND" H 1755 3677 50  0000 C CNN
F 2 "" H 1750 3850 50  0001 C CNN
F 3 "" H 1750 3850 50  0001 C CNN
	1    1750 3850
	1    0    0    -1  
$EndComp
Wire Wire Line
	1750 3800 1750 3850
Wire Wire Line
	8150 2250 8450 2250
$Comp
L power:GND #PWR0104
U 1 1 5DF4F9D6
P 8700 2000
F 0 "#PWR0104" H 8700 1750 50  0001 C CNN
F 1 "GND" H 8705 1827 50  0000 C CNN
F 2 "" H 8700 2000 50  0001 C CNN
F 3 "" H 8700 2000 50  0001 C CNN
	1    8700 2000
	1    0    0    -1  
$EndComp
Wire Wire Line
	8600 2150 8600 1850
Wire Wire Line
	8600 1850 8700 1850
Wire Wire Line
	8700 1850 8700 2000
Wire Wire Line
	8150 2150 8600 2150
$Comp
L power:+5V #PWR0105
U 1 1 5DF51C4B
P 8500 1800
F 0 "#PWR0105" H 8500 1650 50  0001 C CNN
F 1 "+5V" H 8515 1973 50  0000 C CNN
F 2 "" H 8500 1800 50  0001 C CNN
F 3 "" H 8500 1800 50  0001 C CNN
	1    8500 1800
	1    0    0    -1  
$EndComp
Wire Wire Line
	8500 2050 8500 1800
Wire Wire Line
	8150 2050 8500 2050
$Comp
L power:GND #PWR0106
U 1 1 5DF55081
P 13900 7150
F 0 "#PWR0106" H 13900 6900 50  0001 C CNN
F 1 "GND" H 13905 6977 50  0000 C CNN
F 2 "" H 13900 7150 50  0001 C CNN
F 3 "" H 13900 7150 50  0001 C CNN
	1    13900 7150
	1    0    0    -1  
$EndComp
Wire Wire Line
	13900 7100 13900 7150
$Comp
L power:+5V #PWR0107
U 1 1 5DF56822
P 13200 4250
F 0 "#PWR0107" H 13200 4100 50  0001 C CNN
F 1 "+5V" H 13215 4423 50  0000 C CNN
F 2 "" H 13200 4250 50  0001 C CNN
F 3 "" H 13200 4250 50  0001 C CNN
	1    13200 4250
	1    0    0    -1  
$EndComp
Wire Wire Line
	13150 4300 13200 4300
Wire Wire Line
	13200 4300 13200 4250
$Comp
L power:GND #PWR0108
U 1 1 5DF5AD03
P 13200 4550
F 0 "#PWR0108" H 13200 4300 50  0001 C CNN
F 1 "GND" H 13205 4377 50  0000 C CNN
F 2 "" H 13200 4550 50  0001 C CNN
F 3 "" H 13200 4550 50  0001 C CNN
	1    13200 4550
	1    0    0    -1  
$EndComp
Wire Wire Line
	13150 4500 13200 4500
Wire Wire Line
	13200 4500 13200 4550
$Comp
L Connector_Generic:Conn_01x22 J1
U 1 1 5DEF2DD1
P 7250 3050
F 0 "J1" H 7250 4300 50  0000 L CNN
F 1 "Left_connector" H 6800 4200 50  0000 L CNN
F 2 "Connector_PinSocket_2.54mm:PinSocket_1x22_P2.54mm_Vertical" H 7250 3050 50  0001 C CNN
F 3 "~" H 7250 3050 50  0001 C CNN
	1    7250 3050
	1    0    0    -1  
$EndComp
$Comp
L power:+3V3 #PWR0109
U 1 1 5DF5D49F
P 13900 5850
F 0 "#PWR0109" H 13900 5700 50  0001 C CNN
F 1 "+3V3" H 13915 6023 50  0000 C CNN
F 2 "" H 13900 5850 50  0001 C CNN
F 3 "" H 13900 5850 50  0001 C CNN
	1    13900 5850
	1    0    0    -1  
$EndComp
$Comp
L Device:CP C1
U 1 1 5DF60A54
P 14750 6550
F 0 "C1" H 14868 6596 50  0000 L CNN
F 1 "100uF" H 14868 6505 50  0000 L CNN
F 2 "Capacitor_THT:CP_Radial_D5.0mm_P2.00mm" H 14788 6400 50  0001 C CNN
F 3 "~" H 14750 6550 50  0001 C CNN
	1    14750 6550
	1    0    0    -1  
$EndComp
Wire Wire Line
	14750 5900 14750 6400
$Comp
L power:GND #PWR0110
U 1 1 5DF64C8A
P 11700 4550
F 0 "#PWR0110" H 11700 4300 50  0001 C CNN
F 1 "GND" H 11705 4377 50  0000 C CNN
F 2 "" H 11700 4550 50  0001 C CNN
F 3 "" H 11700 4550 50  0001 C CNN
	1    11700 4550
	1    0    0    -1  
$EndComp
$Comp
L power:GND #PWR0112
U 1 1 5DF65B56
P 3300 7150
F 0 "#PWR0112" H 3300 6900 50  0001 C CNN
F 1 "GND" H 3305 6977 50  0000 C CNN
F 2 "" H 3300 7150 50  0001 C CNN
F 3 "" H 3300 7150 50  0001 C CNN
	1    3300 7150
	1    0    0    -1  
$EndComp
$Comp
L power:GND #PWR0113
U 1 1 5DF65F7D
P 14200 2050
F 0 "#PWR0113" H 14200 1800 50  0001 C CNN
F 1 "GND" H 14205 1877 50  0000 C CNN
F 2 "" H 14200 2050 50  0001 C CNN
F 3 "" H 14200 2050 50  0001 C CNN
	1    14200 2050
	1    0    0    -1  
$EndComp
$Comp
L power:GND #PWR0114
U 1 1 5DF66680
P 12350 2050
F 0 "#PWR0114" H 12350 1800 50  0001 C CNN
F 1 "GND" H 12355 1877 50  0000 C CNN
F 2 "" H 12350 2050 50  0001 C CNN
F 3 "" H 12350 2050 50  0001 C CNN
	1    12350 2050
	1    0    0    -1  
$EndComp
$Comp
L power:GND #PWR0115
U 1 1 5DF67F65
P 14650 4550
F 0 "#PWR0115" H 14650 4300 50  0001 C CNN
F 1 "GND" H 14655 4377 50  0000 C CNN
F 2 "" H 14650 4550 50  0001 C CNN
F 3 "" H 14650 4550 50  0001 C CNN
	1    14650 4550
	1    0    0    -1  
$EndComp
$Comp
L power:+5V #PWR0116
U 1 1 5DF69387
P 14650 4250
F 0 "#PWR0116" H 14650 4100 50  0001 C CNN
F 1 "+5V" H 14665 4423 50  0000 C CNN
F 2 "" H 14650 4250 50  0001 C CNN
F 3 "" H 14650 4250 50  0001 C CNN
	1    14650 4250
	1    0    0    -1  
$EndComp
$Comp
L power:+5V #PWR0119
U 1 1 5DF6FDAF
P 11700 4250
F 0 "#PWR0119" H 11700 4100 50  0001 C CNN
F 1 "+5V" H 11715 4423 50  0000 C CNN
F 2 "" H 11700 4250 50  0001 C CNN
F 3 "" H 11700 4250 50  0001 C CNN
	1    11700 4250
	1    0    0    -1  
$EndComp
$Comp
L power:GND #PWR0120
U 1 1 5DF70563
P 3300 10400
F 0 "#PWR0120" H 3300 10150 50  0001 C CNN
F 1 "GND" H 3305 10227 50  0000 C CNN
F 2 "" H 3300 10400 50  0001 C CNN
F 3 "" H 3300 10400 50  0001 C CNN
	1    3300 10400
	1    0    0    -1  
$EndComp
Wire Wire Line
	11650 4500 11700 4500
Wire Wire Line
	11700 4500 11700 4550
Wire Wire Line
	11650 4300 11700 4300
Wire Wire Line
	11700 4300 11700 4250
Wire Wire Line
	3300 6250 3300 6300
Wire Wire Line
	14150 2000 14200 2000
Wire Wire Line
	14200 2000 14200 2050
Wire Wire Line
	12300 2000 12350 2000
Wire Wire Line
	12350 2000 12350 2050
Wire Wire Line
	14600 4300 14650 4300
Wire Wire Line
	14650 4300 14650 4250
Wire Wire Line
	14600 4500 14650 4500
Wire Wire Line
	14650 4500 14650 4550
Wire Wire Line
	3300 7150 3300 7100
Wire Wire Line
	6750 2450 7050 2450
Wire Wire Line
	12450 4400 11650 4400
Wire Wire Line
	5850 2550 7050 2550
Wire Wire Line
	8150 3650 9200 3650
Wire Wire Line
	13850 4400 13150 4400
Wire Wire Line
	8150 3750 9200 3750
Wire Wire Line
	12750 6800 13400 6800
Wire Wire Line
	8150 4150 9200 4150
Wire Wire Line
	12750 6500 13400 6500
Wire Wire Line
	8150 4050 9200 4050
Wire Wire Line
	12750 6700 13400 6700
Wire Wire Line
	8150 3950 9200 3950
Text Label 9200 3750 2    50   ~ 0
SIG_LEFT_SERVO
Text Label 9200 3650 2    50   ~ 0
SIG_RIGHT_SERVO
Text Label 12750 6500 0    50   ~ 0
~CS_NRF
Text Label 12750 6700 0    50   ~ 0
CE_NRF
Text Label 12750 6800 0    50   ~ 0
IRQ_NRF
Text Label 12450 4400 2    50   ~ 0
SIG_SENSOR_SERVO
Wire Wire Line
	4150 6650 3700 6650
Wire Wire Line
	4150 6750 3700 6750
Wire Wire Line
	8150 3450 9200 3450
Text Label 9200 3450 2    50   ~ 0
SDA
Wire Wire Line
	2400 6750 2900 6750
Wire Wire Line
	8150 2950 9200 2950
Wire Wire Line
	2400 6650 2900 6650
Wire Wire Line
	8150 2850 9200 2850
Text Label 2400 6650 0    50   ~ 0
XSHUT_1
Text Label 9200 4050 2    50   ~ 0
~CS_NRF
Text Label 9200 3950 2    50   ~ 0
CE_NRF
Text Label 9200 4150 2    50   ~ 0
IRQ_NRF
Wire Wire Line
	15300 4400 14600 4400
Text Label 13850 4400 2    50   ~ 0
SIG_LEFT_SERVO
Text Label 15300 4400 2    50   ~ 0
SIG_RIGHT_SERVO
Text Label 9200 2950 2    50   ~ 0
XSHUT_2
Text Label 9200 2850 2    50   ~ 0
XSHUT_1
Text Label 2400 6750 0    50   ~ 0
XSHUT_2
Text Label 4150 6750 2    50   ~ 0
SCL
Text Label 4150 6650 2    50   ~ 0
SDA
Wire Wire Line
	13400 6200 12750 6200
Wire Wire Line
	13400 6300 12750 6300
Wire Wire Line
	13400 6400 12750 6400
Wire Wire Line
	2900 9700 2300 9700
Wire Wire Line
	2900 9900 2300 9900
Text Label 2300 9700 0    50   ~ 0
MOSI
Text Label 12750 6200 0    50   ~ 0
MOSI
Wire Wire Line
	5850 3250 7050 3250
Wire Wire Line
	5850 3150 7050 3150
Text Label 5850 3250 0    50   ~ 0
MOSI
Text Label 5850 3150 0    50   ~ 0
MISO
Text Label 2300 9900 0    50   ~ 0
MISO
Text Label 12750 6300 0    50   ~ 0
MISO
Text Label 12750 6400 0    50   ~ 0
SCK
Wire Wire Line
	5850 3050 7050 3050
Text Label 2300 9800 0    50   ~ 0
SCK
Wire Wire Line
	2300 9800 2900 9800
Wire Wire Line
	5850 2750 7050 2750
Wire Wire Line
	5850 2850 7050 2850
Text Label 5850 2750 0    50   ~ 0
UART_TX
Text Label 5850 2850 0    50   ~ 0
UART_RX
Wire Wire Line
	12300 1800 12700 1800
Wire Wire Line
	14150 1800 14600 1800
Wire Wire Line
	14150 1900 14600 1900
Wire Wire Line
	12300 1900 12700 1900
Text Label 12700 1800 2    50   ~ 0
CLK_LEFT
Wire Wire Line
	6750 3350 7050 3350
Wire Wire Line
	6750 3450 7050 3450
Wire Wire Line
	5850 3950 7050 3950
Wire Wire Line
	5850 4050 7050 4050
Text Label 14600 1800 2    50   ~ 0
CLK_RIGHT
Text Label 14600 1900 2    50   ~ 0
DATA_RIGHT
Text Label 12700 1900 2    50   ~ 0
DATA_LEFT
Text Label 5850 3950 0    50   ~ 0
CLK_RIGHT
Text Label 5850 4050 0    50   ~ 0
DATA_RIGHT
Wire Wire Line
	7650 4350 7650 4700
$Comp
L Connector_Generic:Conn_01x22 J6
U 1 1 5E4A9908
P 9250 8550
F 0 "J6" H 9300 9800 50  0000 C CNN
F 1 "Right_connector" H 9050 9700 50  0000 C CNN
F 2 "Connector_PinSocket_2.54mm:PinSocket_1x22_P2.54mm_Vertical" H 9250 8550 50  0001 C CNN
F 3 "~" H 9250 8550 50  0001 C CNN
	1    9250 8550
	-1   0    0    -1  
$EndComp
Wire Wire Line
	8350 9350 8050 9350
Wire Wire Line
	8350 9250 8050 9250
Wire Wire Line
	8350 9150 8050 9150
Wire Wire Line
	8350 9050 8050 9050
Wire Wire Line
	8350 8450 8050 8450
Wire Wire Line
	8350 8150 8050 8150
Wire Wire Line
	8350 7750 8050 7750
Wire Wire Line
	8350 7650 8050 7650
Wire Wire Line
	8350 7550 8050 7550
Wire Wire Line
	9450 7850 9750 7850
Wire Wire Line
	9450 8050 9750 8050
Wire Wire Line
	9450 8150 9750 8150
Wire Wire Line
	9450 8250 9750 8250
Wire Wire Line
	9450 8550 9750 8550
Wire Wire Line
	9450 8650 9750 8650
Wire Wire Line
	9450 8750 9750 8750
Wire Wire Line
	9450 9150 9750 9150
Wire Wire Line
	9450 9350 9750 9350
Text Label 8050 7550 0    50   ~ 0
H0
Text Label 8050 7650 0    50   ~ 0
H1
Text Label 8050 7750 0    50   ~ 0
~RST
Text Label 8050 7850 0    50   ~ 0
V-
Text Label 8050 7950 0    50   ~ 0
V+
Text Label 8050 8050 0    50   ~ 0
PA0
Text Label 8050 8150 0    50   ~ 0
PA1
Text Label 8050 8250 0    50   ~ 0
PA2
Text Label 8050 8350 0    50   ~ 0
PA3
Text Label 8050 8450 0    50   ~ 0
PA4
Text Label 8050 8550 0    50   ~ 0
PA5
Text Label 8050 8650 0    50   ~ 0
PA6
Text Label 8050 8750 0    50   ~ 0
PA7
Text Label 8050 8850 0    50   ~ 0
PA8
Text Label 8050 8950 0    50   ~ 0
PA9
Text Label 8050 9050 0    50   ~ 0
PA10
Text Label 8050 9150 0    50   ~ 0
PA11
Text Label 8050 9250 0    50   ~ 0
PA12
Text Label 8050 9350 0    50   ~ 0
PA13
Text Label 8050 9450 0    50   ~ 0
PA14
Text Label 8050 9550 0    50   ~ 0
PA15
Text Label 9750 9650 2    50   ~ 0
PB0
Text Label 9750 9550 2    50   ~ 0
PB1
Text Label 9750 9450 2    50   ~ 0
PB2
Text Label 9750 9350 2    50   ~ 0
PB3
Text Label 9750 9250 2    50   ~ 0
PB4
Text Label 9750 9150 2    50   ~ 0
PB5
Text Label 9750 9050 2    50   ~ 0
PB6
Text Label 9750 8950 2    50   ~ 0
PB7
Text Label 9750 8850 2    50   ~ 0
PB8
Text Label 9750 8750 2    50   ~ 0
PB9
Text Label 9750 8650 2    50   ~ 0
PB10
Text Label 9750 8450 2    50   ~ 0
PB13
Text Label 9750 8550 2    50   ~ 0
PB12
Text Label 9750 8350 2    50   ~ 0
PB14
Text Label 9750 8250 2    50   ~ 0
PB15
Text Label 9750 8150 2    50   ~ 0
PC15
Text Label 9750 8050 2    50   ~ 0
PC14
Text Label 9750 7950 2    50   ~ 0
PC13
Text Label 9750 7850 2    50   ~ 0
VB
Wire Wire Line
	8050 7850 8350 7850
Wire Wire Line
	9450 7750 9750 7750
$Comp
L power:GND #PWR0123
U 1 1 5E4A9960
P 10000 7500
F 0 "#PWR0123" H 10000 7250 50  0001 C CNN
F 1 "GND" H 10005 7327 50  0000 C CNN
F 2 "" H 10000 7500 50  0001 C CNN
F 3 "" H 10000 7500 50  0001 C CNN
	1    10000 7500
	1    0    0    -1  
$EndComp
Wire Wire Line
	9900 7650 9900 7350
Wire Wire Line
	9900 7350 10000 7350
Wire Wire Line
	10000 7350 10000 7500
Wire Wire Line
	9450 7650 9900 7650
$Comp
L power:+5V #PWR0124
U 1 1 5E4A996A
P 9800 7300
F 0 "#PWR0124" H 9800 7150 50  0001 C CNN
F 1 "+5V" H 9815 7473 50  0000 C CNN
F 2 "" H 9800 7300 50  0001 C CNN
F 3 "" H 9800 7300 50  0001 C CNN
	1    9800 7300
	1    0    0    -1  
$EndComp
Wire Wire Line
	9800 7550 9800 7300
Wire Wire Line
	9450 7550 9800 7550
$Comp
L Connector_Generic:Conn_01x22 J2
U 1 1 5E4A9972
P 8550 8550
F 0 "J2" H 8550 9800 50  0000 L CNN
F 1 "Left_connector" H 8100 9700 50  0000 L CNN
F 2 "Connector_PinSocket_2.54mm:PinSocket_1x22_P2.54mm_Vertical" H 8550 8550 50  0001 C CNN
F 3 "~" H 8550 8550 50  0001 C CNN
	1    8550 8550
	1    0    0    -1  
$EndComp
Wire Wire Line
	8050 7950 8350 7950
Wire Wire Line
	8050 8050 8350 8050
Wire Wire Line
	8050 8750 8350 8750
Wire Wire Line
	8050 8650 8350 8650
Wire Wire Line
	8050 8550 8350 8550
Wire Wire Line
	8050 8250 8350 8250
Wire Wire Line
	8050 8350 8350 8350
Wire Wire Line
	8050 8850 8350 8850
Wire Wire Line
	8050 8950 8350 8950
Wire Wire Line
	8050 9450 8350 9450
Wire Wire Line
	8050 9550 8350 9550
Wire Wire Line
	9450 8350 9750 8350
Wire Wire Line
	9450 8450 9750 8450
Wire Wire Line
	9450 8850 9750 8850
Wire Wire Line
	9450 8950 9750 8950
Wire Wire Line
	9450 9050 9750 9050
Wire Wire Line
	9450 9250 9750 9250
Wire Wire Line
	9450 9450 9750 9450
Wire Wire Line
	9450 9550 9750 9550
Wire Wire Line
	9450 9650 9750 9650
Wire Wire Line
	9450 7950 9750 7950
$Comp
L CUSTOM_minor:Servomotors S1
U 1 1 5E55DC0B
P 11450 4400
F 0 "S1" H 11450 4600 50  0000 C CNN
F 1 "Sensor_Servo" V 11300 4400 50  0000 C CNN
F 2 "Connector_PinHeader_2.54mm:PinHeader_1x03_P2.54mm_Vertical" H 11450 4800 50  0001 C CNN
F 3 "" H 11450 4800 50  0001 C CNN
	1    11450 4400
	1    0    0    -1  
$EndComp
$Comp
L CUSTOM_minor:Servomotors S2
U 1 1 5E55E5D8
P 14400 4400
F 0 "S2" H 14400 4600 50  0000 C CNN
F 1 "Right_servo" V 14250 4400 50  0000 C CNN
F 2 "Connector_PinHeader_2.54mm:PinHeader_1x03_P2.54mm_Vertical" H 14400 4800 50  0001 C CNN
F 3 "" H 14400 4800 50  0001 C CNN
	1    14400 4400
	1    0    0    -1  
$EndComp
$Comp
L CUSTOM_minor:Servomotors S3
U 1 1 5E55EBFD
P 12950 4400
F 0 "S3" H 12950 4600 50  0000 C CNN
F 1 "Left_servo" V 12800 4400 50  0000 C CNN
F 2 "Connector_PinHeader_2.54mm:PinHeader_1x03_P2.54mm_Vertical" H 12950 4800 50  0001 C CNN
F 3 "" H 12950 4800 50  0001 C CNN
	1    12950 4400
	1    0    0    -1  
$EndComp
$Comp
L power:+5V #PWR0125
U 1 1 5E5753F8
P 2200 3450
F 0 "#PWR0125" H 2200 3300 50  0001 C CNN
F 1 "+5V" H 2215 3623 50  0000 C CNN
F 2 "" H 2200 3450 50  0001 C CNN
F 3 "" H 2200 3450 50  0001 C CNN
	1    2200 3450
	1    0    0    -1  
$EndComp
$Comp
L power:GND #PWR0126
U 1 1 5E5756D1
P 2600 3750
F 0 "#PWR0126" H 2600 3500 50  0001 C CNN
F 1 "GND" H 2605 3577 50  0000 C CNN
F 2 "" H 2600 3750 50  0001 C CNN
F 3 "" H 2600 3750 50  0001 C CNN
	1    2600 3750
	1    0    0    -1  
$EndComp
$Comp
L power:+3V3 #PWR0127
U 1 1 5E575A8E
P 3000 3450
F 0 "#PWR0127" H 3000 3300 50  0001 C CNN
F 1 "+3V3" H 3015 3623 50  0000 C CNN
F 2 "" H 3000 3450 50  0001 C CNN
F 3 "" H 3000 3450 50  0001 C CNN
	1    3000 3450
	1    0    0    -1  
$EndComp
$Comp
L power:PWR_FLAG #FLG0102
U 1 1 5E576A28
P 3000 3750
F 0 "#FLG0102" H 3000 3825 50  0001 C CNN
F 1 "PWR_FLAG" H 3000 3923 50  0000 C CNN
F 2 "" H 3000 3750 50  0001 C CNN
F 3 "~" H 3000 3750 50  0001 C CNN
	1    3000 3750
	-1   0    0    1   
$EndComp
$Comp
L power:PWR_FLAG #FLG0103
U 1 1 5E5773E1
P 2600 3450
F 0 "#FLG0103" H 2600 3525 50  0001 C CNN
F 1 "PWR_FLAG" H 2600 3623 50  0000 C CNN
F 2 "" H 2600 3450 50  0001 C CNN
F 3 "~" H 2600 3450 50  0001 C CNN
	1    2600 3450
	1    0    0    -1  
$EndComp
$Comp
L power:PWR_FLAG #FLG0104
U 1 1 5E57797C
P 2200 3750
F 0 "#FLG0104" H 2200 3825 50  0001 C CNN
F 1 "PWR_FLAG" H 2200 3923 50  0000 C CNN
F 2 "" H 2200 3750 50  0001 C CNN
F 3 "~" H 2200 3750 50  0001 C CNN
	1    2200 3750
	-1   0    0    1   
$EndComp
Wire Wire Line
	2200 3750 2200 3450
Wire Wire Line
	2600 3450 2600 3750
Wire Wire Line
	3000 3450 3000 3750
Wire Notes Line
	600  600  4500 600 
Wire Notes Line
	4500 600  4500 5000
Wire Notes Line
	4500 5000 600  5000
Wire Notes Line
	600  5000 600  600 
Wire Notes Line
	4650 600  10500 600 
Wire Notes Line
	10500 600  10500 5000
Wire Notes Line
	10500 5000 4650 5000
Wire Notes Line
	4650 5000 4650 600 
Wire Notes Line
	10650 600  15950 600 
Wire Notes Line
	15950 600  15950 2550
Wire Notes Line
	15950 2550 10650 2550
Wire Notes Line
	10650 2550 10650 600 
Wire Notes Line
	10650 2700 10650 5000
Wire Notes Line
	10650 5000 15950 5000
Wire Notes Line
	15950 5000 15950 2700
Wire Notes Line
	15950 2700 10650 2700
Wire Notes Line
	600  5150 6100 5150
Wire Notes Line
	6100 5150 6100 8000
Wire Notes Line
	6100 8000 600  8000
Wire Notes Line
	600  8000 600  5150
Wire Notes Line
	600  8150 6100 8150
Wire Notes Line
	6100 8150 6100 11100
Wire Notes Line
	6100 11100 600  11100
Wire Notes Line
	600  11100 600  8150
Wire Notes Line
	6250 11100 6250 5150
Wire Notes Line
	6250 5150 11650 5150
Wire Notes Line
	11650 5150 11650 11100
Wire Notes Line
	11650 11100 6250 11100
Wire Notes Line
	11800 5150 15950 5150
Wire Notes Line
	15950 9850 11800 9850
Text Notes 1450 1700 0    197  ~ 39
Power supply
Text Notes 2150 5750 0    197  ~ 39
Distance sensor
Text Notes 2950 8850 0    197  ~ 39
IMU
Text Notes 6600 1350 0    197  ~ 39
Microcontroller
Text Notes 7850 6500 0    197  ~ 39
Extra headers
Text Notes 12450 1300 0    197  ~ 39
Encoders
Text Notes 12200 3550 0    197  ~ 39
Servomotors
Text Notes 12050 5600 0    197  ~ 39
Wireless communication
Wire Wire Line
	3300 9350 3300 9450
Wire Wire Line
	3300 10250 3300 10400
Wire Wire Line
	13900 5900 14750 5900
Connection ~ 13900 5900
Wire Wire Line
	13900 5900 13900 5850
Wire Wire Line
	13900 7100 14750 7100
Connection ~ 13900 7100
Wire Wire Line
	14750 7100 14750 6700
$Comp
L power:GND #PWR01
U 1 1 5E96780B
P 6750 4300
F 0 "#PWR01" H 6750 4050 50  0001 C CNN
F 1 "GND" H 6755 4127 50  0000 C CNN
F 2 "" H 6750 4300 50  0001 C CNN
F 3 "" H 6750 4300 50  0001 C CNN
	1    6750 4300
	1    0    0    -1  
$EndComp
Wire Wire Line
	6750 4150 6750 4300
$Comp
L power:GND #PWR03
U 1 1 5E971037
P 7750 4700
F 0 "#PWR03" H 7750 4450 50  0001 C CNN
F 1 "GND" H 7755 4527 50  0000 C CNN
F 2 "" H 7750 4700 50  0001 C CNN
F 3 "" H 7750 4700 50  0001 C CNN
	1    7750 4700
	1    0    0    -1  
$EndComp
$Comp
L Connector_Generic:Conn_01x04 J4
U 1 1 5E97C9BE
P 8950 9650
F 0 "J4" V 8850 9800 50  0000 L CNN
F 1 "Bottom_connector" V 8750 9800 50  0000 L CNN
F 2 "Connector_PinSocket_2.54mm:PinSocket_1x04_P2.54mm_Vertical" H 8950 9650 50  0001 C CNN
F 3 "~" H 8950 9650 50  0001 C CNN
	1    8950 9650
	0    1    -1   0   
$EndComp
Wire Wire Line
	9050 9850 9050 10200
Text Label 8850 10200 1    50   ~ 0
SWDIO
Text Label 8950 10200 1    50   ~ 0
SWSCK
$Comp
L power:GND #PWR05
U 1 1 5E97C9C9
P 9050 10200
F 0 "#PWR05" H 9050 9950 50  0001 C CNN
F 1 "GND" H 9055 10027 50  0000 C CNN
F 2 "" H 9050 10200 50  0001 C CNN
F 3 "" H 9050 10200 50  0001 C CNN
	1    9050 10200
	1    0    0    -1  
$EndComp
Wire Wire Line
	8750 9850 8750 10200
Wire Wire Line
	8350 9650 8050 9650
$Comp
L power:GND #PWR06
U 1 1 5E986D3D
P 8050 9800
F 0 "#PWR06" H 8050 9550 50  0001 C CNN
F 1 "GND" H 8055 9627 50  0000 C CNN
F 2 "" H 8050 9800 50  0001 C CNN
F 3 "" H 8050 9800 50  0001 C CNN
	1    8050 9800
	1    0    0    -1  
$EndComp
Wire Wire Line
	8050 9650 8050 9800
Wire Wire Line
	2900 10000 2300 10000
Text Label 2300 10000 0    50   ~ 0
~CS_IMU
Text Label 5850 2950 0    50   ~ 0
~CS_IMU
Wire Wire Line
	5850 2950 7050 2950
NoConn ~ 12150 8750
NoConn ~ 13650 8750
Text Label 12150 8950 0    50   ~ 0
GND
Text Label 12150 9050 0    50   ~ 0
GND
Text Label 12150 9250 0    50   ~ 0
GND_DETECT
Text Label 12150 9150 0    50   ~ 0
JCLK
Text Label 12150 9350 0    50   ~ 0
UART_RX
Text Label 13650 8850 2    50   ~ 0
SWDIO
Text Label 13650 8950 2    50   ~ 0
SWSCK
Text Label 13650 9050 2    50   ~ 0
JTDO_SWO
Text Label 13650 9150 2    50   ~ 0
JTDI_NC
Text Label 13650 9250 2    50   ~ 0
~RST
Text Label 13650 9350 2    50   ~ 0
UART_TX
Wire Wire Line
	12150 8850 12650 8850
Wire Wire Line
	11950 8950 11950 9050
Wire Wire Line
	11950 8950 12650 8950
Connection ~ 11950 9050
Wire Wire Line
	11950 9050 11950 9250
Connection ~ 11950 9250
Wire Wire Line
	11950 9250 11950 9450
$Comp
L power:GND #PWR09
U 1 1 5E0F71DE
P 11950 9450
F 0 "#PWR09" H 11950 9200 50  0001 C CNN
F 1 "GND" H 11955 9277 50  0000 C CNN
F 2 "" H 11950 9450 50  0001 C CNN
F 3 "" H 11950 9450 50  0001 C CNN
	1    11950 9450
	1    0    0    -1  
$EndComp
Wire Wire Line
	12650 8750 12150 8750
Wire Wire Line
	12650 9150 12150 9150
Wire Wire Line
	11950 9050 12650 9050
Wire Wire Line
	12150 9350 12650 9350
Wire Wire Line
	11950 9250 12650 9250
$Comp
L Connector_Generic:Conn_02x07_Odd_Even J7
U 1 1 5E00372E
P 12850 9050
F 0 "J7" H 12900 9567 50  0000 C CNN
F 1 "ST_LINK_main_connector" H 12900 9476 50  0000 C CNN
F 2 "Connector_PinSocket_1.27mm:PinSocket_2x07_P1.27mm_Vertical" H 12850 9050 50  0001 C CNN
F 3 "~" H 12850 9050 50  0001 C CNN
	1    12850 9050
	1    0    0    -1  
$EndComp
Wire Wire Line
	13150 8750 13650 8750
Wire Wire Line
	13150 8850 13650 8850
Wire Wire Line
	13150 8950 13650 8950
Wire Wire Line
	13150 9050 13650 9050
Wire Wire Line
	13150 9150 13650 9150
Wire Wire Line
	13150 9250 13650 9250
Wire Wire Line
	13150 9350 13650 9350
$Comp
L Connector_Generic:Conn_01x06 J8
U 1 1 5E121178
P 14650 9000
F 0 "J8" H 14568 8567 50  0000 C CNN
F 1 "ST_LINK_side_conn_1" H 14568 8476 50  0000 C CNN
F 2 "Connector_PinSocket_2.54mm:PinSocket_1x06_P2.54mm_Vertical" H 14650 9000 50  0001 C CNN
F 3 "~" H 14650 9000 50  0001 C CNN
	1    14650 9000
	1    0    0    -1  
$EndComp
$Comp
L Connector_Generic:Conn_01x06 J9
U 1 1 5E122E74
P 15000 9000
F 0 "J9" H 14918 9417 50  0000 C CNN
F 1 "ST_LINK_side_conn_2" H 14918 9326 50  0000 C CNN
F 2 "Connector_PinSocket_2.54mm:PinSocket_1x06_P2.54mm_Vertical" H 15000 9000 50  0001 C CNN
F 3 "~" H 15000 9000 50  0001 C CNN
	1    15000 9000
	-1   0    0    -1  
$EndComp
Wire Wire Line
	13950 8800 14450 8800
Wire Wire Line
	13950 8900 14450 8900
Wire Wire Line
	13950 9000 14450 9000
Wire Wire Line
	13950 9100 14450 9100
Wire Wire Line
	13950 9200 14450 9200
Wire Wire Line
	13950 9300 14450 9300
Wire Wire Line
	15200 9300 15700 9300
Wire Wire Line
	15200 9200 15700 9200
Wire Wire Line
	15200 9100 15700 9100
Wire Wire Line
	15200 9000 15700 9000
Wire Wire Line
	15200 8900 15700 8900
Wire Wire Line
	15200 8800 15700 8800
Text Label 13950 8900 0    50   ~ 0
UART_TX
Text Label 13950 9000 0    50   ~ 0
UART_RX
Text Label 13950 9100 0    50   ~ 0
JTDI_NC
Text Label 13950 9200 0    50   ~ 0
JCLK
Text Label 13950 9300 0    50   ~ 0
GND
Text Label 15700 9100 2    50   ~ 0
~RST
Text Label 15700 9200 2    50   ~ 0
JTDO_SWO
Text Label 15700 9300 2    50   ~ 0
GND
Wire Wire Line
	15700 9300 15700 9500
$Comp
L power:GND #PWR013
U 1 1 5E22067C
P 15700 9500
F 0 "#PWR013" H 15700 9250 50  0001 C CNN
F 1 "GND" H 15705 9327 50  0000 C CNN
F 2 "" H 15700 9500 50  0001 C CNN
F 3 "" H 15700 9500 50  0001 C CNN
	1    15700 9500
	1    0    0    -1  
$EndComp
Wire Wire Line
	13950 9300 13950 9500
$Comp
L power:GND #PWR011
U 1 1 5E22D13E
P 13950 9500
F 0 "#PWR011" H 13950 9250 50  0001 C CNN
F 1 "GND" H 13955 9327 50  0000 C CNN
F 2 "" H 13950 9500 50  0001 C CNN
F 3 "" H 13950 9500 50  0001 C CNN
	1    13950 9500
	1    0    0    -1  
$EndComp
Wire Notes Line
	11800 7500 15950 7500
Wire Notes Line
	15950 7650 11800 7650
Wire Notes Line
	11800 7650 11800 9850
Wire Notes Line
	11800 7500 11800 5150
Wire Notes Line
	15950 9850 15950 7650
Wire Notes Line
	15950 7500 15950 5150
Text Notes 13300 8050 0    197  ~ 39
ST_LINK
$Comp
L Switch:SW_Push SW1
U 1 1 5E323DAA
P 5400 2250
F 0 "SW1" H 5400 2535 50  0000 C CNN
F 1 "SW_Push" H 5400 2444 50  0000 C CNN
F 2 "Button_Switch_THT:SW_PUSH_6mm" H 5400 2450 50  0001 C CNN
F 3 "~" H 5400 2450 50  0001 C CNN
	1    5400 2250
	1    0    0    -1  
$EndComp
Wire Wire Line
	5600 2250 5650 2250
Wire Wire Line
	5200 2250 5150 2250
Wire Wire Line
	4950 2250 4950 2400
$Comp
L power:GND #PWR07
U 1 1 5E34FCC2
P 4950 2400
F 0 "#PWR07" H 4950 2150 50  0001 C CNN
F 1 "GND" H 4955 2227 50  0000 C CNN
F 2 "" H 4950 2400 50  0001 C CNN
F 3 "" H 4950 2400 50  0001 C CNN
	1    4950 2400
	1    0    0    -1  
$EndComp
$Comp
L Device:C_Small C2
U 1 1 5E350775
P 5400 2400
F 0 "C2" V 5300 2400 50  0000 C CNN
F 1 "100nF" V 5550 2400 50  0000 C CNN
F 2 "Capacitor_THT:C_Rect_L7.0mm_W2.0mm_P5.00mm" H 5400 2400 50  0001 C CNN
F 3 "~" H 5400 2400 50  0001 C CNN
	1    5400 2400
	0    1    1    0   
$EndComp
Wire Wire Line
	5650 2250 5650 2400
Wire Wire Line
	5650 2400 5500 2400
Connection ~ 5650 2250
Wire Wire Line
	5650 2250 7050 2250
Wire Wire Line
	5300 2400 5150 2400
Wire Wire Line
	5150 2400 5150 2250
Connection ~ 5150 2250
Wire Wire Line
	5150 2250 4950 2250
$Comp
L CUSTOM_minor:VL53L1X_x2 U1
U 1 1 5E404F2D
P 3300 6700
F 0 "U1" H 3150 7050 48  0000 C CNN
F 1 "VL53L1X_x2" H 3550 7050 48  0000 C CNN
F 2 "Connector_PinHeader_2.54mm:PinHeader_2x03_P2.54mm_Vertical" H 3100 7050 197 0001 C CNN
F 3 "" H 3100 7050 197 0001 C CNN
	1    3300 6700
	1    0    0    -1  
$EndComp
Text Label 15700 8900 2    50   ~ 0
SWDIO
Text Label 15700 9000 2    50   ~ 0
SWSCK
Wire Wire Line
	8150 3850 9200 3850
Wire Wire Line
	3650 3350 3650 3400
$Comp
L Device:Battery BT2
U 1 1 5DF278CE
P 3650 3600
F 0 "BT2" H 3758 3646 50  0000 L CNN
F 1 "Battery" H 3758 3555 50  0000 L CNN
F 2 "Connector_PinHeader_2.54mm:PinHeader_1x02_P2.54mm_Vertical" V 3650 3660 50  0001 C CNN
F 3 "~" V 3650 3660 50  0001 C CNN
	1    3650 3600
	1    0    0    -1  
$EndComp
$Comp
L power:GND #PWR015
U 1 1 5DF278FD
P 3650 3850
F 0 "#PWR015" H 3650 3600 50  0001 C CNN
F 1 "GND" H 3655 3677 50  0000 C CNN
F 2 "" H 3650 3850 50  0001 C CNN
F 3 "" H 3650 3850 50  0001 C CNN
	1    3650 3850
	1    0    0    -1  
$EndComp
Wire Wire Line
	3650 3800 3650 3850
Wire Wire Line
	8150 2450 8450 2450
Text Label 8450 2350 2    50   ~ 0
VB
Text Label 8450 2450 2    50   ~ 0
PC13
Text Label 8450 2550 2    50   ~ 0
PC14
Text Label 8450 2650 2    50   ~ 0
PC15
Text Label 8450 2750 2    50   ~ 0
PB15
Text Label 8450 3050 2    50   ~ 0
PB12
Text Label 8450 3150 2    50   ~ 0
PB10
Text Label 8450 3250 2    50   ~ 0
PB9
Text Label 8450 3350 2    50   ~ 0
PB8
Text Label 8450 3550 2    50   ~ 0
PB6
Text Label 6750 2050 0    50   ~ 0
H0
Text Label 6750 2150 0    50   ~ 0
H1
Text Label 6750 2250 0    50   ~ 0
~RST
Text Label 6750 2350 0    50   ~ 0
V-
Text Label 6750 2450 0    50   ~ 0
V+
Text Label 6750 2550 0    50   ~ 0
PA0
Text Label 6750 2650 0    50   ~ 0
PA1
Text Label 6750 2750 0    50   ~ 0
PA2
Text Label 6750 2850 0    50   ~ 0
PA3
Text Label 6750 2950 0    50   ~ 0
PA4
Text Label 6750 3050 0    50   ~ 0
PA5
Text Label 6750 3150 0    50   ~ 0
PA6
Text Label 6750 3250 0    50   ~ 0
PA7
Text Label 6750 3350 0    50   ~ 0
PA8
Text Label 6750 3450 0    50   ~ 0
PA9
Text Label 6750 3550 0    50   ~ 0
PA10
Text Label 6750 3650 0    50   ~ 0
PA11
Text Label 6750 3750 0    50   ~ 0
PA12
Text Label 6750 3850 0    50   ~ 0
PA13
Text Label 6750 3950 0    50   ~ 0
PA14
Text Label 6750 4050 0    50   ~ 0
PA15
Text Label 8450 4150 2    50   ~ 0
PB0
Text Label 8450 4050 2    50   ~ 0
PB1
Text Label 8450 3950 2    50   ~ 0
PB2
Text Label 8450 3750 2    50   ~ 0
PB4
Text Label 8450 3850 2    50   ~ 0
PB3
Text Label 8450 3650 2    50   ~ 0
PB5
Text Label 8450 3450 2    50   ~ 0
PB7
Text Label 8450 2950 2    50   ~ 0
PB13
Text Label 8450 2850 2    50   ~ 0
PB14
$Comp
L Connector_Generic:Conn_01x03 J10
U 1 1 5DF25D80
P 3550 2750
F 0 "J10" V 3422 2930 50  0000 L CNN
F 1 "Conn_01x03" V 3513 2930 50  0000 L CNN
F 2 "Connector_PinHeader_2.54mm:PinHeader_1x03_P2.54mm_Vertical" H 3550 2750 50  0001 C CNN
F 3 "~" H 3550 2750 50  0001 C CNN
	1    3550 2750
	0    1    1    0   
$EndComp
Wire Wire Line
	3450 2550 3450 2500
Wire Wire Line
	3550 2550 3550 2500
Wire Wire Line
	3650 2550 3650 2500
$Comp
L power:+3V3 #PWR017
U 1 1 5DF2A9E2
P 3550 2500
F 0 "#PWR017" H 3550 2350 50  0001 C CNN
F 1 "+3V3" H 3565 2673 50  0000 C CNN
F 2 "" H 3550 2500 50  0001 C CNN
F 3 "" H 3550 2500 50  0001 C CNN
	1    3550 2500
	1    0    0    -1  
$EndComp
Wire Wire Line
	5850 2650 7050 2650
Wire Wire Line
	8150 3350 9200 3350
Text Label 9200 3350 2    50   ~ 0
SCL
Text Label 9200 3850 2    50   ~ 0
SCK
Text Label 5850 2650 0    50   ~ 0
CLK_LEFT
Text Label 5850 3050 0    50   ~ 0
DATA_LEFT
Wire Wire Line
	8150 3550 9200 3550
Text Label 9200 3550 2    50   ~ 0
SIG_SENSOR_SERVO
$Comp
L power:+3V3 #PWR0111
U 1 1 5DF42F95
P 3300 6250
F 0 "#PWR0111" H 3300 6100 50  0001 C CNN
F 1 "+3V3" H 3315 6423 50  0000 C CNN
F 2 "" H 3300 6250 50  0001 C CNN
F 3 "" H 3300 6250 50  0001 C CNN
	1    3300 6250
	1    0    0    -1  
$EndComp
Wire Wire Line
	3650 2500 3950 2500
Wire Wire Line
	3150 2500 3450 2500
Text Label 3950 2500 2    50   ~ 0
3V3_BAT
Text Label 3150 2500 0    50   ~ 0
3V3_MC
Text Label 4000 3350 2    50   ~ 0
3V3_BAT
Wire Wire Line
	3650 3350 4000 3350
Connection ~ 3650 3350
Wire Wire Line
	3300 3350 3650 3350
Wire Wire Line
	3300 3350 3300 3400
$Comp
L power:PWR_FLAG #FLG0101
U 1 1 5DF444B2
P 3300 3400
F 0 "#FLG0101" H 3300 3475 50  0001 C CNN
F 1 "PWR_FLAG" H 3300 3573 50  0000 C CNN
F 2 "" H 3300 3400 50  0001 C CNN
F 3 "~" H 3300 3400 50  0001 C CNN
	1    3300 3400
	-1   0    0    1   
$EndComp
$Comp
L power:+3V3 #PWR0103
U 1 1 5DF482F5
P 3300 9350
F 0 "#PWR0103" H 3300 9200 50  0001 C CNN
F 1 "+3V3" H 3315 9523 50  0000 C CNN
F 2 "" H 3300 9350 50  0001 C CNN
F 3 "" H 3300 9350 50  0001 C CNN
	1    3300 9350
	1    0    0    -1  
$EndComp
Text Label 9750 7750 2    50   ~ 0
3V3_MC
Text Label 8450 2250 2    50   ~ 0
3V3_MC
Text Label 12150 8850 0    50   ~ 0
3V3_MC
Text Label 15700 8800 2    50   ~ 0
3V3_MC
Text Label 13950 8800 0    50   ~ 0
3V3_MC
Text Label 8750 10200 1    50   ~ 0
3V3_MC_2
Wire Wire Line
	8850 9850 8850 10200
Wire Wire Line
	8950 9850 8950 10200
Text Label 7450 4700 1    50   ~ 0
3V3_MC_2
Wire Wire Line
	7450 4350 7450 4700
Wire Wire Line
	7550 4350 7550 4700
$Comp
L Mechanical:MountingHole H1
U 1 1 5DF3F1DD
P 8650 10700
F 0 "H1" H 8750 10746 50  0000 L CNN
F 1 "MH" H 8750 10655 50  0000 L CNN
F 2 "MountingHole:MountingHole_3.2mm_M3" H 8650 10700 50  0001 C CNN
F 3 "~" H 8650 10700 50  0001 C CNN
	1    8650 10700
	1    0    0    -1  
$EndComp
$Comp
L Mechanical:MountingHole H3
U 1 1 5DF433EA
P 9000 10700
F 0 "H3" H 9100 10746 50  0000 L CNN
F 1 "MH" H 9100 10655 50  0000 L CNN
F 2 "MountingHole:MountingHole_3.2mm_M3" H 9000 10700 50  0001 C CNN
F 3 "~" H 9000 10700 50  0001 C CNN
	1    9000 10700
	1    0    0    -1  
$EndComp
$Comp
L Mechanical:MountingHole H2
U 1 1 5DF3FF34
P 8650 10950
F 0 "H2" H 8750 10996 50  0000 L CNN
F 1 "MH" H 8750 10905 50  0000 L CNN
F 2 "MountingHole:MountingHole_3.2mm_M3" H 8650 10950 50  0001 C CNN
F 3 "~" H 8650 10950 50  0001 C CNN
	1    8650 10950
	1    0    0    -1  
$EndComp
$Comp
L Mechanical:MountingHole H4
U 1 1 5DF3FFAD
P 9000 10950
F 0 "H4" H 9100 10996 50  0000 L CNN
F 1 "MH" H 9100 10905 50  0000 L CNN
F 2 "MountingHole:MountingHole_3.2mm_M3" H 9000 10950 50  0001 C CNN
F 3 "~" H 9000 10950 50  0001 C CNN
	1    9000 10950
	1    0    0    -1  
$EndComp
$Comp
L Mechanical:MountingHole GRAPHIC1
U 1 1 5DF7AAA2
P 9400 10700
F 0 "GRAPHIC1" H 9500 10746 50  0000 L CNN
F 1 "logo_front" H 9500 10655 50  0000 L CNN
F 2 "swarmbots_lib:swarmbots_logo" H 9400 10700 50  0001 C CNN
F 3 "~" H 9400 10700 50  0001 C CNN
	1    9400 10700
	1    0    0    -1  
$EndComp
$Comp
L Mechanical:MountingHole GRAPHIC2
U 1 1 5DF7DF4D
P 9400 10950
F 0 "GRAPHIC2" H 9500 10996 50  0000 L CNN
F 1 "logo_back" H 9500 10905 50  0000 L CNN
F 2 "swarmbots_lib:swarmbots_logo" H 9400 10950 50  0001 C CNN
F 3 "~" H 9400 10950 50  0001 C CNN
	1    9400 10950
	1    0    0    -1  
$EndComp
$EndSCHEMATC
