G04 #@! TF.GenerationSoftware,KiCad,Pcbnew,(5.99.0-498-ge57fe9d17)*
G04 #@! TF.CreationDate,2019-12-17T16:24:21+01:00*
G04 #@! TF.ProjectId,PCB probeersel,50434220-7072-46f6-9265-657273656c2e,rev?*
G04 #@! TF.SameCoordinates,Original*
G04 #@! TF.FileFunction,Paste,Bot*
G04 #@! TF.FilePolarity,Positive*
%FSLAX46Y46*%
G04 Gerber Fmt 4.6, Leading zero omitted, Abs format (unit mm)*
G04 Created by KiCad (PCBNEW (5.99.0-498-ge57fe9d17)) date 2019-12-17 16:24:21*
%MOMM*%
%LPD*%
G04 APERTURE LIST*
G04 APERTURE END LIST*
M02*
